('/home/taiel/Documents/Taiel/Python/emailfordwader/build/EmailPool/PYZ-00.pyz',
 [('__future__', '/usr/lib/python3.10/__future__.py', 'PYMODULE'),
  ('_compat_pickle', '/usr/lib/python3.10/_compat_pickle.py', 'PYMODULE'),
  ('_compression', '/usr/lib/python3.10/_compression.py', 'PYMODULE'),
  ('_py_abc', '/usr/lib/python3.10/_py_abc.py', 'PYMODULE'),
  ('_pydecimal', '/usr/lib/python3.10/_pydecimal.py', 'PYMODULE'),
  ('_strptime', '/usr/lib/python3.10/_strptime.py', 'PYMODULE'),
  ('_threading_local', '/usr/lib/python3.10/_threading_local.py', 'PYMODULE'),
  ('argparse', '/usr/lib/python3.10/argparse.py', 'PYMODULE'),
  ('ast', '/usr/lib/python3.10/ast.py', 'PYMODULE'),
  ('base64', '/usr/lib/python3.10/base64.py', 'PYMODULE'),
  ('bisect', '/usr/lib/python3.10/bisect.py', 'PYMODULE'),
  ('bz2', '/usr/lib/python3.10/bz2.py', 'PYMODULE'),
  ('calendar', '/usr/lib/python3.10/calendar.py', 'PYMODULE'),
  ('configparser', '/usr/lib/python3.10/configparser.py', 'PYMODULE'),
  ('contextlib', '/usr/lib/python3.10/contextlib.py', 'PYMODULE'),
  ('contextvars', '/usr/lib/python3.10/contextvars.py', 'PYMODULE'),
  ('copy', '/usr/lib/python3.10/copy.py', 'PYMODULE'),
  ('csv', '/usr/lib/python3.10/csv.py', 'PYMODULE'),
  ('dataclasses', '/usr/lib/python3.10/dataclasses.py', 'PYMODULE'),
  ('datetime', '/usr/lib/python3.10/datetime.py', 'PYMODULE'),
  ('decimal', '/usr/lib/python3.10/decimal.py', 'PYMODULE'),
  ('dis', '/usr/lib/python3.10/dis.py', 'PYMODULE'),
  ('email', '/usr/lib/python3.10/email/__init__.py', 'PYMODULE'),
  ('email._encoded_words',
   '/usr/lib/python3.10/email/_encoded_words.py',
   'PYMODULE'),
  ('email._header_value_parser',
   '/usr/lib/python3.10/email/_header_value_parser.py',
   'PYMODULE'),
  ('email._parseaddr', '/usr/lib/python3.10/email/_parseaddr.py', 'PYMODULE'),
  ('email._policybase', '/usr/lib/python3.10/email/_policybase.py', 'PYMODULE'),
  ('email.base64mime', '/usr/lib/python3.10/email/base64mime.py', 'PYMODULE'),
  ('email.charset', '/usr/lib/python3.10/email/charset.py', 'PYMODULE'),
  ('email.contentmanager',
   '/usr/lib/python3.10/email/contentmanager.py',
   'PYMODULE'),
  ('email.encoders', '/usr/lib/python3.10/email/encoders.py', 'PYMODULE'),
  ('email.errors', '/usr/lib/python3.10/email/errors.py', 'PYMODULE'),
  ('email.feedparser', '/usr/lib/python3.10/email/feedparser.py', 'PYMODULE'),
  ('email.generator', '/usr/lib/python3.10/email/generator.py', 'PYMODULE'),
  ('email.header', '/usr/lib/python3.10/email/header.py', 'PYMODULE'),
  ('email.headerregistry',
   '/usr/lib/python3.10/email/headerregistry.py',
   'PYMODULE'),
  ('email.iterators', '/usr/lib/python3.10/email/iterators.py', 'PYMODULE'),
  ('email.message', '/usr/lib/python3.10/email/message.py', 'PYMODULE'),
  ('email.mime', '/usr/lib/python3.10/email/mime/__init__.py', 'PYMODULE'),
  ('email.mime.base', '/usr/lib/python3.10/email/mime/base.py', 'PYMODULE'),
  ('email.mime.nonmultipart',
   '/usr/lib/python3.10/email/mime/nonmultipart.py',
   'PYMODULE'),
  ('email.mime.text', '/usr/lib/python3.10/email/mime/text.py', 'PYMODULE'),
  ('email.parser', '/usr/lib/python3.10/email/parser.py', 'PYMODULE'),
  ('email.policy', '/usr/lib/python3.10/email/policy.py', 'PYMODULE'),
  ('email.quoprimime', '/usr/lib/python3.10/email/quoprimime.py', 'PYMODULE'),
  ('email.utils', '/usr/lib/python3.10/email/utils.py', 'PYMODULE'),
  ('fnmatch', '/usr/lib/python3.10/fnmatch.py', 'PYMODULE'),
  ('fractions', '/usr/lib/python3.10/fractions.py', 'PYMODULE'),
  ('ftplib', '/usr/lib/python3.10/ftplib.py', 'PYMODULE'),
  ('getopt', '/usr/lib/python3.10/getopt.py', 'PYMODULE'),
  ('getpass', '/usr/lib/python3.10/getpass.py', 'PYMODULE'),
  ('gettext', '/usr/lib/python3.10/gettext.py', 'PYMODULE'),
  ('gzip', '/usr/lib/python3.10/gzip.py', 'PYMODULE'),
  ('hashlib', '/usr/lib/python3.10/hashlib.py', 'PYMODULE'),
  ('hmac', '/usr/lib/python3.10/hmac.py', 'PYMODULE'),
  ('http', '/usr/lib/python3.10/http/__init__.py', 'PYMODULE'),
  ('http.client', '/usr/lib/python3.10/http/client.py', 'PYMODULE'),
  ('http.cookiejar', '/usr/lib/python3.10/http/cookiejar.py', 'PYMODULE'),
  ('importlib', '/usr/lib/python3.10/importlib/__init__.py', 'PYMODULE'),
  ('importlib._abc', '/usr/lib/python3.10/importlib/_abc.py', 'PYMODULE'),
  ('importlib._bootstrap',
   '/usr/lib/python3.10/importlib/_bootstrap.py',
   'PYMODULE'),
  ('importlib._bootstrap_external',
   '/usr/lib/python3.10/importlib/_bootstrap_external.py',
   'PYMODULE'),
  ('importlib.abc', '/usr/lib/python3.10/importlib/abc.py', 'PYMODULE'),
  ('importlib.machinery',
   '/usr/lib/python3.10/importlib/machinery.py',
   'PYMODULE'),
  ('importlib.metadata',
   '/usr/lib/python3.10/importlib/metadata/__init__.py',
   'PYMODULE'),
  ('importlib.metadata._adapters',
   '/usr/lib/python3.10/importlib/metadata/_adapters.py',
   'PYMODULE'),
  ('importlib.metadata._collections',
   '/usr/lib/python3.10/importlib/metadata/_collections.py',
   'PYMODULE'),
  ('importlib.metadata._functools',
   '/usr/lib/python3.10/importlib/metadata/_functools.py',
   'PYMODULE'),
  ('importlib.metadata._itertools',
   '/usr/lib/python3.10/importlib/metadata/_itertools.py',
   'PYMODULE'),
  ('importlib.metadata._meta',
   '/usr/lib/python3.10/importlib/metadata/_meta.py',
   'PYMODULE'),
  ('importlib.metadata._text',
   '/usr/lib/python3.10/importlib/metadata/_text.py',
   'PYMODULE'),
  ('importlib.readers', '/usr/lib/python3.10/importlib/readers.py', 'PYMODULE'),
  ('importlib.util', '/usr/lib/python3.10/importlib/util.py', 'PYMODULE'),
  ('inspect', '/usr/lib/python3.10/inspect.py', 'PYMODULE'),
  ('logging', '/usr/lib/python3.10/logging/__init__.py', 'PYMODULE'),
  ('lzma', '/usr/lib/python3.10/lzma.py', 'PYMODULE'),
  ('mimetypes', '/usr/lib/python3.10/mimetypes.py', 'PYMODULE'),
  ('mysql',
   '/home/taiel/.local/lib/python3.10/site-packages/mysql/__init__.py',
   'PYMODULE'),
  ('mysql.connector',
   '/home/taiel/.local/lib/python3.10/site-packages/mysql/connector/__init__.py',
   'PYMODULE'),
  ('mysql.connector.abstracts',
   '/home/taiel/.local/lib/python3.10/site-packages/mysql/connector/abstracts.py',
   'PYMODULE'),
  ('mysql.connector.authentication',
   '/home/taiel/.local/lib/python3.10/site-packages/mysql/connector/authentication.py',
   'PYMODULE'),
  ('mysql.connector.catch23',
   '/home/taiel/.local/lib/python3.10/site-packages/mysql/connector/catch23.py',
   'PYMODULE'),
  ('mysql.connector.charsets',
   '/home/taiel/.local/lib/python3.10/site-packages/mysql/connector/charsets.py',
   'PYMODULE'),
  ('mysql.connector.connection',
   '/home/taiel/.local/lib/python3.10/site-packages/mysql/connector/connection.py',
   'PYMODULE'),
  ('mysql.connector.connection_cext',
   '/home/taiel/.local/lib/python3.10/site-packages/mysql/connector/connection_cext.py',
   'PYMODULE'),
  ('mysql.connector.constants',
   '/home/taiel/.local/lib/python3.10/site-packages/mysql/connector/constants.py',
   'PYMODULE'),
  ('mysql.connector.conversion',
   '/home/taiel/.local/lib/python3.10/site-packages/mysql/connector/conversion.py',
   'PYMODULE'),
  ('mysql.connector.cursor',
   '/home/taiel/.local/lib/python3.10/site-packages/mysql/connector/cursor.py',
   'PYMODULE'),
  ('mysql.connector.cursor_cext',
   '/home/taiel/.local/lib/python3.10/site-packages/mysql/connector/cursor_cext.py',
   'PYMODULE'),
  ('mysql.connector.custom_types',
   '/home/taiel/.local/lib/python3.10/site-packages/mysql/connector/custom_types.py',
   'PYMODULE'),
  ('mysql.connector.dbapi',
   '/home/taiel/.local/lib/python3.10/site-packages/mysql/connector/dbapi.py',
   'PYMODULE'),
  ('mysql.connector.errorcode',
   '/home/taiel/.local/lib/python3.10/site-packages/mysql/connector/errorcode.py',
   'PYMODULE'),
  ('mysql.connector.errors',
   '/home/taiel/.local/lib/python3.10/site-packages/mysql/connector/errors.py',
   'PYMODULE'),
  ('mysql.connector.fabric',
   '/home/taiel/.local/lib/python3.10/site-packages/mysql/connector/fabric/__init__.py',
   'PYMODULE'),
  ('mysql.connector.fabric.balancing',
   '/home/taiel/.local/lib/python3.10/site-packages/mysql/connector/fabric/balancing.py',
   'PYMODULE'),
  ('mysql.connector.fabric.caching',
   '/home/taiel/.local/lib/python3.10/site-packages/mysql/connector/fabric/caching.py',
   'PYMODULE'),
  ('mysql.connector.fabric.connection',
   '/home/taiel/.local/lib/python3.10/site-packages/mysql/connector/fabric/connection.py',
   'PYMODULE'),
  ('mysql.connector.locales',
   '/home/taiel/.local/lib/python3.10/site-packages/mysql/connector/locales/__init__.py',
   'PYMODULE'),
  ('mysql.connector.network',
   '/home/taiel/.local/lib/python3.10/site-packages/mysql/connector/network.py',
   'PYMODULE'),
  ('mysql.connector.optionfiles',
   '/home/taiel/.local/lib/python3.10/site-packages/mysql/connector/optionfiles.py',
   'PYMODULE'),
  ('mysql.connector.pooling',
   '/home/taiel/.local/lib/python3.10/site-packages/mysql/connector/pooling.py',
   'PYMODULE'),
  ('mysql.connector.protocol',
   '/home/taiel/.local/lib/python3.10/site-packages/mysql/connector/protocol.py',
   'PYMODULE'),
  ('mysql.connector.utils',
   '/home/taiel/.local/lib/python3.10/site-packages/mysql/connector/utils.py',
   'PYMODULE'),
  ('mysql.connector.version',
   '/home/taiel/.local/lib/python3.10/site-packages/mysql/connector/version.py',
   'PYMODULE'),
  ('netrc', '/usr/lib/python3.10/netrc.py', 'PYMODULE'),
  ('nturl2path', '/usr/lib/python3.10/nturl2path.py', 'PYMODULE'),
  ('numbers', '/usr/lib/python3.10/numbers.py', 'PYMODULE'),
  ('opcode', '/usr/lib/python3.10/opcode.py', 'PYMODULE'),
  ('optparse', '/usr/lib/python3.10/optparse.py', 'PYMODULE'),
  ('pathlib', '/usr/lib/python3.10/pathlib.py', 'PYMODULE'),
  ('pickle', '/usr/lib/python3.10/pickle.py', 'PYMODULE'),
  ('platform', '/usr/lib/python3.10/platform.py', 'PYMODULE'),
  ('pprint', '/usr/lib/python3.10/pprint.py', 'PYMODULE'),
  ('py_compile', '/usr/lib/python3.10/py_compile.py', 'PYMODULE'),
  ('queue', '/usr/lib/python3.10/queue.py', 'PYMODULE'),
  ('quopri', '/usr/lib/python3.10/quopri.py', 'PYMODULE'),
  ('random', '/usr/lib/python3.10/random.py', 'PYMODULE'),
  ('selectors', '/usr/lib/python3.10/selectors.py', 'PYMODULE'),
  ('shlex', '/usr/lib/python3.10/shlex.py', 'PYMODULE'),
  ('shutil', '/usr/lib/python3.10/shutil.py', 'PYMODULE'),
  ('signal', '/usr/lib/python3.10/signal.py', 'PYMODULE'),
  ('smtplib', '/usr/lib/python3.10/smtplib.py', 'PYMODULE'),
  ('socket', '/usr/lib/python3.10/socket.py', 'PYMODULE'),
  ('ssl', '/usr/lib/python3.10/ssl.py', 'PYMODULE'),
  ('statistics', '/usr/lib/python3.10/statistics.py', 'PYMODULE'),
  ('string', '/usr/lib/python3.10/string.py', 'PYMODULE'),
  ('stringprep', '/usr/lib/python3.10/stringprep.py', 'PYMODULE'),
  ('subprocess', '/usr/lib/python3.10/subprocess.py', 'PYMODULE'),
  ('tarfile', '/usr/lib/python3.10/tarfile.py', 'PYMODULE'),
  ('tempfile', '/usr/lib/python3.10/tempfile.py', 'PYMODULE'),
  ('textwrap', '/usr/lib/python3.10/textwrap.py', 'PYMODULE'),
  ('threading', '/usr/lib/python3.10/threading.py', 'PYMODULE'),
  ('token', '/usr/lib/python3.10/token.py', 'PYMODULE'),
  ('tokenize', '/usr/lib/python3.10/tokenize.py', 'PYMODULE'),
  ('tracemalloc', '/usr/lib/python3.10/tracemalloc.py', 'PYMODULE'),
  ('typing', '/usr/lib/python3.10/typing.py', 'PYMODULE'),
  ('urllib', '/usr/lib/python3.10/urllib/__init__.py', 'PYMODULE'),
  ('urllib.error', '/usr/lib/python3.10/urllib/error.py', 'PYMODULE'),
  ('urllib.parse', '/usr/lib/python3.10/urllib/parse.py', 'PYMODULE'),
  ('urllib.request', '/usr/lib/python3.10/urllib/request.py', 'PYMODULE'),
  ('urllib.response', '/usr/lib/python3.10/urllib/response.py', 'PYMODULE'),
  ('uu', '/usr/lib/python3.10/uu.py', 'PYMODULE'),
  ('uuid', '/usr/lib/python3.10/uuid.py', 'PYMODULE'),
  ('xml', '/usr/lib/python3.10/xml/__init__.py', 'PYMODULE'),
  ('xml.parsers', '/usr/lib/python3.10/xml/parsers/__init__.py', 'PYMODULE'),
  ('xml.parsers.expat', '/usr/lib/python3.10/xml/parsers/expat.py', 'PYMODULE'),
  ('xml.sax', '/usr/lib/python3.10/xml/sax/__init__.py', 'PYMODULE'),
  ('xml.sax._exceptions',
   '/usr/lib/python3.10/xml/sax/_exceptions.py',
   'PYMODULE'),
  ('xml.sax.expatreader',
   '/usr/lib/python3.10/xml/sax/expatreader.py',
   'PYMODULE'),
  ('xml.sax.handler', '/usr/lib/python3.10/xml/sax/handler.py', 'PYMODULE'),
  ('xml.sax.saxutils', '/usr/lib/python3.10/xml/sax/saxutils.py', 'PYMODULE'),
  ('xml.sax.xmlreader', '/usr/lib/python3.10/xml/sax/xmlreader.py', 'PYMODULE'),
  ('xmlrpc', '/usr/lib/python3.10/xmlrpc/__init__.py', 'PYMODULE'),
  ('xmlrpc.client', '/usr/lib/python3.10/xmlrpc/client.py', 'PYMODULE'),
  ('zipfile', '/usr/lib/python3.10/zipfile.py', 'PYMODULE')])
