(['/home/taiel/Documents/Taiel/Python/emailfordwader/__init__.py'],
 ['/home/taiel/Documents/Taiel/Python'],
 [],
 ['/usr/local/lib/python3.10/dist-packages/_pyinstaller_hooks_contrib/hooks/stdhooks',
  '/usr/local/lib/python3.10/dist-packages/_pyinstaller_hooks_contrib/hooks'],
 {},
 [],
 [],
 False,
 {},
 0,
 [],
 [],
 '3.10.12 (main, Nov 20 2023, 15:14:05) [GCC 11.4.0]',
 [('pyi_rth_inspect',
   '/usr/local/lib/python3.10/dist-packages/PyInstaller/hooks/rthooks/pyi_rth_inspect.py',
   'PYSOURCE'),
  ('__init__',
   '/home/taiel/Documents/Taiel/Python/emailfordwader/__init__.py',
   'PYSOURCE')],
 [('inspect', '/usr/lib/python3.10/inspect.py', 'PYMODULE'),
  ('importlib', '/usr/lib/python3.10/importlib/__init__.py', 'PYMODULE'),
  ('importlib.abc', '/usr/lib/python3.10/importlib/abc.py', 'PYMODULE'),
  ('typing', '/usr/lib/python3.10/typing.py', 'PYMODULE'),
  ('contextlib', '/usr/lib/python3.10/contextlib.py', 'PYMODULE'),
  ('importlib._abc', '/usr/lib/python3.10/importlib/_abc.py', 'PYMODULE'),
  ('importlib._bootstrap_external',
   '/usr/lib/python3.10/importlib/_bootstrap_external.py',
   'PYMODULE'),
  ('importlib.metadata',
   '/usr/lib/python3.10/importlib/metadata/__init__.py',
   'PYMODULE'),
  ('importlib.metadata._itertools',
   '/usr/lib/python3.10/importlib/metadata/_itertools.py',
   'PYMODULE'),
  ('importlib.metadata._functools',
   '/usr/lib/python3.10/importlib/metadata/_functools.py',
   'PYMODULE'),
  ('importlib.metadata._collections',
   '/usr/lib/python3.10/importlib/metadata/_collections.py',
   'PYMODULE'),
  ('importlib.metadata._meta',
   '/usr/lib/python3.10/importlib/metadata/_meta.py',
   'PYMODULE'),
  ('importlib.metadata._adapters',
   '/usr/lib/python3.10/importlib/metadata/_adapters.py',
   'PYMODULE'),
  ('importlib.metadata._text',
   '/usr/lib/python3.10/importlib/metadata/_text.py',
   'PYMODULE'),
  ('email.message', '/usr/lib/python3.10/email/message.py', 'PYMODULE'),
  ('email.policy', '/usr/lib/python3.10/email/policy.py', 'PYMODULE'),
  ('email.contentmanager',
   '/usr/lib/python3.10/email/contentmanager.py',
   'PYMODULE'),
  ('email.quoprimime', '/usr/lib/python3.10/email/quoprimime.py', 'PYMODULE'),
  ('string', '/usr/lib/python3.10/string.py', 'PYMODULE'),
  ('email.headerregistry',
   '/usr/lib/python3.10/email/headerregistry.py',
   'PYMODULE'),
  ('email._header_value_parser',
   '/usr/lib/python3.10/email/_header_value_parser.py',
   'PYMODULE'),
  ('urllib', '/usr/lib/python3.10/urllib/__init__.py', 'PYMODULE'),
  ('email.iterators', '/usr/lib/python3.10/email/iterators.py', 'PYMODULE'),
  ('email.generator', '/usr/lib/python3.10/email/generator.py', 'PYMODULE'),
  ('copy', '/usr/lib/python3.10/copy.py', 'PYMODULE'),
  ('random', '/usr/lib/python3.10/random.py', 'PYMODULE'),
  ('statistics', '/usr/lib/python3.10/statistics.py', 'PYMODULE'),
  ('decimal', '/usr/lib/python3.10/decimal.py', 'PYMODULE'),
  ('_pydecimal', '/usr/lib/python3.10/_pydecimal.py', 'PYMODULE'),
  ('contextvars', '/usr/lib/python3.10/contextvars.py', 'PYMODULE'),
  ('fractions', '/usr/lib/python3.10/fractions.py', 'PYMODULE'),
  ('numbers', '/usr/lib/python3.10/numbers.py', 'PYMODULE'),
  ('hashlib', '/usr/lib/python3.10/hashlib.py', 'PYMODULE'),
  ('logging', '/usr/lib/python3.10/logging/__init__.py', 'PYMODULE'),
  ('pickle', '/usr/lib/python3.10/pickle.py', 'PYMODULE'),
  ('pprint', '/usr/lib/python3.10/pprint.py', 'PYMODULE'),
  ('dataclasses', '/usr/lib/python3.10/dataclasses.py', 'PYMODULE'),
  ('_compat_pickle', '/usr/lib/python3.10/_compat_pickle.py', 'PYMODULE'),
  ('struct', '/usr/lib/python3.10/struct.py', 'PYMODULE'),
  ('threading', '/usr/lib/python3.10/threading.py', 'PYMODULE'),
  ('_threading_local', '/usr/lib/python3.10/_threading_local.py', 'PYMODULE'),
  ('bisect', '/usr/lib/python3.10/bisect.py', 'PYMODULE'),
  ('_strptime', '/usr/lib/python3.10/_strptime.py', 'PYMODULE'),
  ('datetime', '/usr/lib/python3.10/datetime.py', 'PYMODULE'),
  ('calendar', '/usr/lib/python3.10/calendar.py', 'PYMODULE'),
  ('email._encoded_words',
   '/usr/lib/python3.10/email/_encoded_words.py',
   'PYMODULE'),
  ('base64', '/usr/lib/python3.10/base64.py', 'PYMODULE'),
  ('getopt', '/usr/lib/python3.10/getopt.py', 'PYMODULE'),
  ('gettext', '/usr/lib/python3.10/gettext.py', 'PYMODULE'),
  ('email.charset', '/usr/lib/python3.10/email/charset.py', 'PYMODULE'),
  ('email.encoders', '/usr/lib/python3.10/email/encoders.py', 'PYMODULE'),
  ('email.base64mime', '/usr/lib/python3.10/email/base64mime.py', 'PYMODULE'),
  ('email._policybase', '/usr/lib/python3.10/email/_policybase.py', 'PYMODULE'),
  ('email.header', '/usr/lib/python3.10/email/header.py', 'PYMODULE'),
  ('email.errors', '/usr/lib/python3.10/email/errors.py', 'PYMODULE'),
  ('email.utils', '/usr/lib/python3.10/email/utils.py', 'PYMODULE'),
  ('email._parseaddr', '/usr/lib/python3.10/email/_parseaddr.py', 'PYMODULE'),
  ('urllib.parse', '/usr/lib/python3.10/urllib/parse.py', 'PYMODULE'),
  ('quopri', '/usr/lib/python3.10/quopri.py', 'PYMODULE'),
  ('uu', '/usr/lib/python3.10/uu.py', 'PYMODULE'),
  ('optparse', '/usr/lib/python3.10/optparse.py', 'PYMODULE'),
  ('textwrap', '/usr/lib/python3.10/textwrap.py', 'PYMODULE'),
  ('zipfile', '/usr/lib/python3.10/zipfile.py', 'PYMODULE'),
  ('py_compile', '/usr/lib/python3.10/py_compile.py', 'PYMODULE'),
  ('lzma', '/usr/lib/python3.10/lzma.py', 'PYMODULE'),
  ('_compression', '/usr/lib/python3.10/_compression.py', 'PYMODULE'),
  ('bz2', '/usr/lib/python3.10/bz2.py', 'PYMODULE'),
  ('shutil', '/usr/lib/python3.10/shutil.py', 'PYMODULE'),
  ('tarfile', '/usr/lib/python3.10/tarfile.py', 'PYMODULE'),
  ('gzip', '/usr/lib/python3.10/gzip.py', 'PYMODULE'),
  ('fnmatch', '/usr/lib/python3.10/fnmatch.py', 'PYMODULE'),
  ('importlib.util', '/usr/lib/python3.10/importlib/util.py', 'PYMODULE'),
  ('pathlib', '/usr/lib/python3.10/pathlib.py', 'PYMODULE'),
  ('email', '/usr/lib/python3.10/email/__init__.py', 'PYMODULE'),
  ('email.parser', '/usr/lib/python3.10/email/parser.py', 'PYMODULE'),
  ('email.feedparser', '/usr/lib/python3.10/email/feedparser.py', 'PYMODULE'),
  ('csv', '/usr/lib/python3.10/csv.py', 'PYMODULE'),
  ('importlib.readers', '/usr/lib/python3.10/importlib/readers.py', 'PYMODULE'),
  ('importlib._bootstrap',
   '/usr/lib/python3.10/importlib/_bootstrap.py',
   'PYMODULE'),
  ('argparse', '/usr/lib/python3.10/argparse.py', 'PYMODULE'),
  ('token', '/usr/lib/python3.10/token.py', 'PYMODULE'),
  ('tokenize', '/usr/lib/python3.10/tokenize.py', 'PYMODULE'),
  ('importlib.machinery',
   '/usr/lib/python3.10/importlib/machinery.py',
   'PYMODULE'),
  ('dis', '/usr/lib/python3.10/dis.py', 'PYMODULE'),
  ('opcode', '/usr/lib/python3.10/opcode.py', 'PYMODULE'),
  ('ast', '/usr/lib/python3.10/ast.py', 'PYMODULE'),
  ('tracemalloc', '/usr/lib/python3.10/tracemalloc.py', 'PYMODULE'),
  ('subprocess', '/usr/lib/python3.10/subprocess.py', 'PYMODULE'),
  ('selectors', '/usr/lib/python3.10/selectors.py', 'PYMODULE'),
  ('signal', '/usr/lib/python3.10/signal.py', 'PYMODULE'),
  ('stringprep', '/usr/lib/python3.10/stringprep.py', 'PYMODULE'),
  ('_py_abc', '/usr/lib/python3.10/_py_abc.py', 'PYMODULE'),
  ('socket', '/usr/lib/python3.10/socket.py', 'PYMODULE'),
  ('configparser', '/usr/lib/python3.10/configparser.py', 'PYMODULE')],
 [('libpython3.10.so.1.0',
   '/lib/x86_64-linux-gnu/libpython3.10.so.1.0',
   'BINARY'),
  ('lib-dynload/_contextvars.cpython-310-x86_64-linux-gnu.so',
   '/usr/lib/python3.10/lib-dynload/_contextvars.cpython-310-x86_64-linux-gnu.so',
   'EXTENSION'),
  ('lib-dynload/_decimal.cpython-310-x86_64-linux-gnu.so',
   '/usr/lib/python3.10/lib-dynload/_decimal.cpython-310-x86_64-linux-gnu.so',
   'EXTENSION'),
  ('lib-dynload/_hashlib.cpython-310-x86_64-linux-gnu.so',
   '/usr/lib/python3.10/lib-dynload/_hashlib.cpython-310-x86_64-linux-gnu.so',
   'EXTENSION'),
  ('lib-dynload/_lzma.cpython-310-x86_64-linux-gnu.so',
   '/usr/lib/python3.10/lib-dynload/_lzma.cpython-310-x86_64-linux-gnu.so',
   'EXTENSION'),
  ('lib-dynload/_bz2.cpython-310-x86_64-linux-gnu.so',
   '/usr/lib/python3.10/lib-dynload/_bz2.cpython-310-x86_64-linux-gnu.so',
   'EXTENSION'),
  ('lib-dynload/resource.cpython-310-x86_64-linux-gnu.so',
   '/usr/lib/python3.10/lib-dynload/resource.cpython-310-x86_64-linux-gnu.so',
   'EXTENSION'),
  ('lib-dynload/_opcode.cpython-310-x86_64-linux-gnu.so',
   '/usr/lib/python3.10/lib-dynload/_opcode.cpython-310-x86_64-linux-gnu.so',
   'EXTENSION'),
  ('lib-dynload/_multibytecodec.cpython-310-x86_64-linux-gnu.so',
   '/usr/lib/python3.10/lib-dynload/_multibytecodec.cpython-310-x86_64-linux-gnu.so',
   'EXTENSION'),
  ('lib-dynload/_codecs_jp.cpython-310-x86_64-linux-gnu.so',
   '/usr/lib/python3.10/lib-dynload/_codecs_jp.cpython-310-x86_64-linux-gnu.so',
   'EXTENSION'),
  ('lib-dynload/_codecs_kr.cpython-310-x86_64-linux-gnu.so',
   '/usr/lib/python3.10/lib-dynload/_codecs_kr.cpython-310-x86_64-linux-gnu.so',
   'EXTENSION'),
  ('lib-dynload/_codecs_iso2022.cpython-310-x86_64-linux-gnu.so',
   '/usr/lib/python3.10/lib-dynload/_codecs_iso2022.cpython-310-x86_64-linux-gnu.so',
   'EXTENSION'),
  ('lib-dynload/_codecs_cn.cpython-310-x86_64-linux-gnu.so',
   '/usr/lib/python3.10/lib-dynload/_codecs_cn.cpython-310-x86_64-linux-gnu.so',
   'EXTENSION'),
  ('lib-dynload/_codecs_tw.cpython-310-x86_64-linux-gnu.so',
   '/usr/lib/python3.10/lib-dynload/_codecs_tw.cpython-310-x86_64-linux-gnu.so',
   'EXTENSION'),
  ('lib-dynload/_codecs_hk.cpython-310-x86_64-linux-gnu.so',
   '/usr/lib/python3.10/lib-dynload/_codecs_hk.cpython-310-x86_64-linux-gnu.so',
   'EXTENSION'),
  ('libexpat.so.1', '/lib/x86_64-linux-gnu/libexpat.so.1', 'BINARY'),
  ('libz.so.1', '/lib/x86_64-linux-gnu/libz.so.1', 'BINARY'),
  ('libmpdec.so.3', '/lib/x86_64-linux-gnu/libmpdec.so.3', 'BINARY'),
  ('libcrypto.so.3', '/lib/x86_64-linux-gnu/libcrypto.so.3', 'BINARY'),
  ('liblzma.so.5', '/lib/x86_64-linux-gnu/liblzma.so.5', 'BINARY'),
  ('libbz2.so.1.0', '/lib/x86_64-linux-gnu/libbz2.so.1.0', 'BINARY')],
 [],
 [],
 [('base_library.zip',
   '/home/taiel/Documents/Taiel/Python/emailfordwader/build/__init__/base_library.zip',
   'DATA')])
